test/MrOfdmModulatorSpec.vcd
$timescale
  1 us
$end
$scope module Input $end
$var bit 1 " ready_i $end
$var bit 1 ! start_i $end
$upscope $end
$scope module Output $end
$scope module debug $end
$var bit 1 ' phr_encoder_ready_i $end
$var bit 1 ( phr_encoder_valid_o $end
$var bit 1 ) phr_interleaver_ready_i $end
$var bit 1 * phr_interleaver_valid_o $end
$var bit 1 + phr_ofdm_ready_i $end
$var bit 1 , phr_ofdm_valid_o $end
$var bit 1 - phr_ofdm_write $end
$var bit 1 & psdu_ready $end
$var bit 1 % psdu_valid $end
$upscope $end
$var bit 1 $ ready_o $end
$var bit 1 # valid_o $end
$upscope $end
$enddefinitions $end
$dumpvars
0!
1"
1#
0$
0%
0&
0'
0(
0)
0*
0+
0,
0-
$end
#1
0#
1$
1'
#2
1&
#3
#4
#5
#6
1!
#7
0!
0$
1%
#8
1(
#9
#10
0&
#11
1&
#12
0&
#13
1&
#14
0&
#15
1&
#16
0&
#17
1&
#18
0&
#19
1&
#20
0&
0'
1*
#21
1&
1)
1-
#22
0&
#23
1&
#24
0&
#25
1&
#26
0&
#27
1&
#28
0&
#29
1&
#30
0&
#31
1&
#32
0&
#33
1&
1'
0*
0-
#34
0&
#35
1&
#36
0&
#37
1&
#38
0&
#39
1&
#40
0&
#41
1&
#42
0&
#43
1&
#44
0&
#45
1&
0'
1*
1-
#46
0&
#47
1&
#48
0&
#49
1&
#50
0&
#51
1&
#52
0&
#53
1&
#54
0&
#55
1&
#56
0&
#57
1&
1'
0)
0*
0-
#58
0&
1)
#59
1&
#60
0&
#61
1&
#62
0&
#63
1&
#64
0&
#65
1&
#66
0&
#67
1&
#68
0&
#69
1&
0'
1*
1-
#70
0&
#71
1&
#72
0&
#73
1&
#74
0&
#75
1&
#76
0&
#77
1&
#78
0&
#79
1&
#80
0&
#81
1&
1'
0*
0-
#82
0&
#83
1&
#84
0&
#85
1&
#86
0&
#87
1&
#88
0&
#89
1&
#90
0&
#91
1&
#92
0&
#93
1&
0'
1*
1-
#94
0&
#95
1&
#96
0&
#97
1&
#98
0&
#99
1&
#100
0&
#101
1&
#102
0&
#103
1&
#104
0&
0)
0-
#105
1&
1'
1)
0*
#106
0&
#107
#108
#109
#110
#111
#112
#113
#114
#115
#116
#117
0'
1*
1-
#118
#119
#120
#121
#122
#123
#124
#125
#126
#127
#128
#129
1'
0*
0-
#130
#131
#132
#133
#134
#135
#136
#137
#138
#139
#140
#141
0'
1*
1-
#142
#143
#144
#145
#146
#147
#148
#149
0)
0-
#150
1)
1-
#151
#152
#153
#154
1'
0*
0-
#155
#156
#157
#158
#159
#160
#161
#162
#163
#164
#165
#166
0'
1*
1-
#167
#168
#169
#170
#171
#172
#173
#174
#175
#176
#177
#178
1'
0*
0-
#179
#180
#181
#182
#183
#184
#185
#186
#187
#188
#189
#190
0'
1*
1-
#191
#192
#193
#194
#195
#196
0)
0-
#197
1)
1-
#198
#199
#200
#201
#202
#203
1'
0*
0-
#204
#205
#206
#207
#208
1&
#209
0&
#210
1&
#211
0&
#212
1&
#213
0&
#214
1&
#215
0&
0'
1*
1-
#216
1&
#217
0&
0)
1,
0-
#218
1&
#219
0&
#220
1&
#221
0&
#222
1&
#223
0&
#224
1&
#225
0&
#226
1&
#227
0&
#228
1&
#229
0&
#230
1&
#231
0&
#232
1&
#233
0&
#234
1&
#235
0&
#236
1&
#237
0&
#238
1&
#239
0&
#240
1&
#241
0&
#242
1&
#243
0&
#244
1&
#245
0&
#246
1&
#247
0&
#248
1&
#249
0&
#250
1&
#251
0&
#252
1&
#253
0&
#254
1&
#255
0&
#256
1&
#257
0&
#258
1&
#259
0&
#260
1&
#261
0&
#262
1&
#263
0&
#264
1&
#265
0&
#266
1&
#267
0&
#268
1&
#269
0&
#270
1&
#271
0&
#272
1&
#273
0&
#274
1&
#275
0&
#276
1&
#277
0&
#278
1&
#279
0&
#280
1&
#281
0&
#282
1&
#283
0&
#284
1&
#285
0&
#286
1&
#287
0&
#288
1&
#289
0&
#290
1&
#291
0&
#292
1&
#293
0&
#294
1&
#295
0&
#296
1&
#297
0&
#298
1&
#299
0&
#300
1&
#301
0&
#302
1&
#303
0&
