test/MrOfdmModulatorSpec.vcd
$timescale
  1 us
$end
$scope module Input $end
$var bit 1 " ready_i $end
$var bit 1 ! start_i $end
$upscope $end
$scope module Output $end
$scope module debug $end
$var bit 10 + ofdmMasterWriteCounter $end
$var bit 1 ) phr_interleaver_ready_i $end
$var bit 1 * phr_interleaver_valid_o $end
$var bit 1 % phr_ofdm_ready_i $end
$var bit 1 & phr_ofdm_valid_o $end
$var bit 1 ' psdu_ofdm_ready_i $end
$var bit 1 ( psdu_ofdm_valid_o $end
$upscope $end
$var bit 1 $ ready_o $end
$var bit 1 # valid_o $end
$upscope $end
$enddefinitions $end
$dumpvars
0!
1"
1#
0$
0%
0&
0'
0(
0)
0*
b0000000000 +
$end
#1
0#
1$
#2
#3
#4
#5
#6
1!
#7
0!
0$
#8
#9
#10
#11
#12
#13
#14
#15
#16
#17
#18
#19
#20
1*
#21
1)
#22
0)
b0000000001 +
#23
#24
#25
1)
#26
0)
b0000000010 +
#27
#28
#29
1)
#30
0)
b0000000011 +
#31
#32
#33
1)
#34
0)
b0000000100 +
#35
#36
#37
1)
#38
0)
b0000000101 +
#39
#40
#41
1)
#42
0)
b0000000110 +
#43
#44
#45
1)
#46
0)
b0000000111 +
#47
#48
#49
1)
#50
0)
b0000001000 +
#51
#52
#53
1)
#54
0)
b0000001001 +
#55
#56
#57
#58
1)
#59
0)
b0000001010 +
#60
#61
#62
1)
#63
0)
b0000001011 +
#64
#65
#66
1)
#67
0)
0*
b0000001100 +
#68
#69
#70
1)
#71
#72
#73
#74
#75
#76
#77
#78
#79
1*
#80
0)
b0000001101 +
#81
#82
1&
