test/MrOfdmModulatorSpec.vcd
$timescale
  1 us
$end
$scope module Input $end
$var bit 1 " ready_i $end
$var bit 1 ! start_i $end
$upscope $end
$scope module Output $end
$scope module debug $end
$var bit 1 J last $end
$var bit 1 & ltf_ready $end
$var bit 10 N phrEncoderMasterCounter $end
$var bit 10 M phrEncoderSlaveCounter $end
$var bit 16 K phrInterleaverMasterCounter $end
$var bit 16 L phrInterleaverSlaveCounter $end
$var bit 1 . phr_encoder_last_o $end
$var bit 1 , phr_encoder_ready_i $end
$var bit 1 - phr_encoder_valid_o $end
$var bit 1 1 phr_interleaver_last_o $end
$var bit 1 / phr_interleaver_ready_i $end
$var bit 1 0 phr_interleaver_valid_o $end
$var bit 1 + phr_last_o $end
$var bit 1 4 phr_ofdm_last_o $end
$var bit 1 2 phr_ofdm_ready_i $end
$var bit 1 3 phr_ofdm_valid_o $end
$var bit 1 ' phr_ready $end
$var bit 1 ) phr_ready_i $end
$var bit 1 * phr_valid_o $end
$var bit 16 O psduInterleaverMasterCounter $end
$var bit 16 P psduInterleaverSlaveCounter $end
$var bit 9 Q psduPadderCounter $end
$var bit 3 R psduPadderState $end
$var bit 1 @ psdu_encoder_last_o $end
$var bit 1 > psdu_encoder_ready_i $end
$var bit 1 ? psdu_encoder_valid_o $end
$var bit 1 F psdu_interleaver_last_o $end
$var bit 1 D psdu_interleaver_ready_i $end
$var bit 1 E psdu_interleaver_valid_o $end
$var bit 1 7 psdu_last_o $end
$var bit 1 I psdu_ofdm_last_o $end
$var bit 1 G psdu_ofdm_ready_i $end
$var bit 1 H psdu_ofdm_valid_o $end
$var bit 1 : psdu_padder_last_o $end
$var bit 1 8 psdu_padder_ready_i $end
$var bit 1 9 psdu_padder_valid_o $end
$var bit 1 C psdu_puncturer_last_o $end
$var bit 1 A psdu_puncturer_ready_i $end
$var bit 1 B psdu_puncturer_valid_o $end
$var bit 1 ( psdu_ready $end
$var bit 1 5 psdu_ready_i $end
$var bit 1 = psdu_scrambler_last_o $end
$var bit 1 ; psdu_scrambler_ready_i $end
$var bit 1 < psdu_scrambler_valid_o $end
$var bit 1 6 psdu_valid_o $end
$var bit 1 % stf_ready $end
$upscope $end
$var bit 1 $ ready_o $end
$var bit 1 # valid_o $end
$upscope $end
$enddefinitions $end
$dumpvars
0!
1"
1#
0$
0%
0&
0'
0(
0)
0*
0+
0,
0-
0.
0/
00
01
02
03
04
05
06
07
08
09
0:
0;
0<
0=
0>
0?
0@
0A
0B
0C
0D
0E
0F
0G
0H
0I
0J
b0000000000000000 K
b0000000000000000 L
b0000000000 M
b0000000000 N
b0000000000000000 O
b0000000000000000 P
b000000000 Q
b000 R
$end
#1
0#
1$
1%
1)
1,
1/
15
1;
1A
1D
#2
18
1>
#3
1!
#7
0!
0$
1*
16
#8
0)
1-
19
b0000000001 N
b001 R
#9
1<
b0000000000000001 K
b0000000001 M
b000000001 Q
#10
1)
0-
0;
1?
b0000000000000010 K
b0000000010 M
b000000010 Q
#11
0)
1-
08
1B
b0000000010 N
b000000011 Q
#12
05
1;
0?
b0000000000000011 K
b0000000011 M
b0000000000000001 O
b010 R
#13
1)
0-
18
0;
1?
0B
b0000000000000100 K
b0000000100 M
b0000000000000010 O
#14
0)
1-
15
08
1B
b0000000011 N
b000000100 Q
b001 R
#15
05
1;
0?
b0000000000000101 K
b0000000101 M
b0000000000000011 O
b010 R
#16
1)
0-
18
0;
1?
0B
b0000000000000110 K
b0000000110 M
b0000000000000100 O
#17
0)
1-
15
08
1B
b0000000100 N
b000000101 Q
b001 R
#18
05
1;
0?
b0000000000000111 K
b0000000111 M
b0000000000000101 O
b010 R
#19
1)
0-
18
0;
1?
0B
b0000000000001000 K
b0000001000 M
b0000000000000110 O
#20
0)
1-
15
08
1B
b0000000101 N
b000000110 Q
b001 R
#21
05
1;
0?
b0000000000001001 K
b0000001001 M
b0000000000000111 O
b010 R
#22
1)
0-
18
0;
1?
0B
b0000000000001010 K
b0000001010 M
b0000000000001000 O
#23
0)
1-
15
08
1B
b0000000110 N
b000000111 Q
b001 R
#24
05
1;
0?
b0000000000001011 K
b0000001011 M
b0000000000001001 O
b010 R
#25
1)
0,
0-
10
18
0;
1?
0B
b0000000000001100 K
b0000001100 M
b0000000000001010 O
#26
0)
1-
0/
15
08
1B
b0000000000000001 L
b0000000111 N
b000001000 Q
b001 R
#27
1/
05
1;
0?
b0000000000001011 O
b010 R
#28
0/
18
0;
1?
0B
b0000000000000010 L
b0000000000001100 O
#29
1/
15
08
1B
b000001001 Q
b001 R
#30
0/
05
1;
0?
b0000000000000011 L
b0000000000001101 O
b010 R
#31
1/
18
0;
1?
0B
b0000000000001110 O
#32
0/
15
08
1B
b0000000000000100 L
b000001010 Q
b001 R
#33
1/
05
1;
0?
b0000000000001111 O
b010 R
#34
0/
18
0;
1?
0B
b0000000000000101 L
b0000000000010000 O
#35
1/
15
08
1B
b000001011 Q
b001 R
#36
0/
05
1;
0?
b0000000000000110 L
b0000000000010001 O
b010 R
#37
1/
18
0;
1?
0B
b0000000000010010 O
#38
0/
15
08
1B
b0000000000000111 L
b000001100 Q
b001 R
#39
1/
05
1;
0?
b0000000000010011 O
b010 R
#40
0/
18
0;
1?
0B
b0000000000001000 L
b0000000000010100 O
#41
1/
15
08
1B
b000001101 Q
b001 R
#42
0/
05
1;
0?
b0000000000001001 L
b0000000000010101 O
b010 R
#43
1/
18
0;
1?
0B
b0000000000010110 O
#44
0/
15
08
1B
b0000000000001010 L
b000001110 Q
b001 R
#45
1/
05
1;
0?
b0000000000010111 O
b010 R
#46
0/
18
0;
1?
0B
b0000000000001011 L
b0000000000011000 O
#47
1/
15
08
1B
b000001111 Q
b001 R
#48
1,
0/
00
05
1;
0?
b0000000000001100 L
b0000000000011001 O
b010 R
#49
1/
18
0;
1?
0B
b0000000000001101 K
b0000001101 M
b0000000000011010 O
#50
1)
0-
15
08
1B
b0000000000001110 K
b0000001110 M
b000010000 Q
b001 R
#51
0)
1-
05
1;
0?
b0000001000 N
b0000000000011011 O
b010 R
#52
18
0;
1?
0B
b0000000000001111 K
b0000001111 M
b0000000000011100 O
#53
1)
0-
15
08
1B
b0000000000010000 K
b0000010000 M
b000010001 Q
b001 R
#54
0)
1-
05
1;
0?
b0000001001 N
b0000000000011101 O
b010 R
#55
18
0;
1?
0B
b0000000000010001 K
b0000010001 M
b0000000000011110 O
#56
1)
0-
15
08
1B
b0000000000010010 K
b0000010010 M
b000010010 Q
b001 R
#57
0)
1-
05
1;
0?
b0000001010 N
b0000000000011111 O
b010 R
#58
18
0;
1?
0B
b0000000000010011 K
b0000010011 M
b0000000000100000 O
#59
1)
0-
15
08
1B
b0000000000010100 K
b0000010100 M
b000010011 Q
b001 R
#60
0)
1-
05
1;
0?
b0000001011 N
b0000000000100001 O
b010 R
#61
18
0;
1?
0B
b0000000000010101 K
b0000010101 M
b0000000000100010 O
#62
1)
0-
15
08
1B
b0000000000010110 K
b0000010110 M
b000010100 Q
b001 R
#63
0)
1-
05
1;
0?
b0000001100 N
b0000000000100011 O
b010 R
#64
18
0;
1?
0B
b0000000000010111 K
b0000010111 M
b0000000000100100 O
#65
1)
0,
0-
10
15
08
1B
b0000000000011000 K
b0000011000 M
b000010101 Q
b001 R
#66
0)
1-
0/
05
1;
0?
b0000000000001101 L
b0000001101 N
b0000000000100101 O
b010 R
#67
18
0;
1?
0B
b0000000000100110 O
#68
15
08
1B
b000010110 Q
b001 R
#69
05
1;
0?
b0000000000100111 O
b010 R
#70
18
0;
1?
0B
b0000000000101000 O
#71
15
08
1B
b000010111 Q
b001 R
#72
05
1;
0?
b0000000000101001 O
b010 R
#73
18
0;
1?
0B
b0000000000101010 O
#74
15
08
1B
b000011000 Q
b001 R
#75
05
1;
0?
b0000000000101011 O
b010 R
#76
18
0;
1?
0B
b0000000000101100 O
#77
15
08
1B
b000011001 Q
b001 R
#78
05
1;
0?
b0000000000101101 O
b010 R
#79
18
0;
1?
0B
b0000000000101110 O
#80
15
08
1B
b000011010 Q
b001 R
#81
05
1;
0?
b0000000000101111 O
b010 R
#82
18
0;
1?
0B
b0000000000110000 O
#83
15
08
1B
b000011011 Q
b001 R
#84
05
1;
0?
b0000000000110001 O
b010 R
#85
13
18
0;
1?
0B
b0000000000110010 O
#86
15
08
1B
b000011100 Q
b001 R
#87
05
1;
0?
b0000000000110011 O
b010 R
#88
18
0;
1?
0B
b0000000000110100 O
#89
15
08
1B
b000011101 Q
b001 R
#90
05
1;
0?
b0000000000110101 O
b010 R
#91
18
0;
1?
0B
b0000000000110110 O
#92
15
08
1B
b000011110 Q
b001 R
#93
05
1;
0?
b0000000000110111 O
b010 R
#94
18
0;
1?
0B
b0000000000111000 O
#95
15
08
1B
b000011111 Q
b001 R
#96
05
1;
0?
b0000000000111001 O
b010 R
#97
18
0;
1?
0B
b0000000000111010 O
#98
15
08
1B
b000100000 Q
b001 R
#99
05
1;
0?
b0000000000111011 O
b010 R
#100
18
0;
1?
0B
b0000000000111100 O
#101
15
08
1B
b000100001 Q
b001 R
#102
05
1;
0?
b0000000000111101 O
b010 R
#103
18
0;
1?
0B
b0000000000111110 O
#104
15
08
1B
b000100010 Q
b001 R
#105
05
1;
0?
b0000000000111111 O
b010 R
#106
18
0;
1?
0B
b0000000001000000 O
#107
15
08
1B
b000100011 Q
b001 R
#108
05
1;
0?
b0000000001000001 O
b010 R
#109
18
0;
1?
0B
b0000000001000010 O
#110
15
08
1B
b000100100 Q
b001 R
#111
05
1;
0?
b0000000001000011 O
b010 R
#112
18
0;
1?
0B
b0000000001000100 O
#113
15
08
1B
b000100101 Q
b001 R
#114
05
1;
0?
b0000000001000101 O
b010 R
#115
18
0;
1?
0B
b0000000001000110 O
#116
15
08
1B
b000100110 Q
b001 R
#117
05
1;
0?
b0000000001000111 O
b010 R
#118
18
0;
1?
0B
b0000000001001000 O
#119
15
08
1B
b000100111 Q
b001 R
#120
05
1;
0?
b0000000001001001 O
b010 R
#121
18
0;
1?
0B
b0000000001001010 O
#122
15
08
1B
b000101000 Q
b001 R
#123
05
1;
0?
b0000000001001011 O
b010 R
#124
18
0;
1?
0B
b0000000001001100 O
#125
15
08
1B
b000101001 Q
b001 R
#126
05
1;
0?
b0000000001001101 O
b010 R
#127
18
0;
1?
0B
b0000000001001110 O
#128
15
08
1B
b000101010 Q
b001 R
#129
05
1;
0?
b0000000001001111 O
b010 R
#130
18
0;
1?
0B
b0000000001010000 O
#131
15
08
1B
b000101011 Q
b001 R
#132
05
1;
0?
b0000000001010001 O
b010 R
#133
18
0;
1?
0B
b0000000001010010 O
#134
15
08
1B
b000101100 Q
b001 R
#135
05
1;
0?
b0000000001010011 O
b010 R
#136
18
0;
1?
0B
b0000000001010100 O
#137
15
08
1B
b000101101 Q
b001 R
#138
05
1;
0?
b0000000001010101 O
b010 R
#139
18
0;
1?
0B
b0000000001010110 O
#140
15
08
1B
b000101110 Q
b001 R
#141
05
1;
0?
b0000000001010111 O
b010 R
#142
18
0;
1?
0B
b0000000001011000 O
#143
15
08
1B
b000101111 Q
b001 R
#144
05
1;
0?
b0000000001011001 O
b010 R
#145
18
0;
1?
0B
b0000000001011010 O
#146
15
08
1B
b000000000 Q
b001 R
#147
05
1;
0?
b0000000001011011 O
b010 R
#148
18
0;
1?
0B
b0000000001011100 O
#149
15
08
1B
b000000001 Q
b001 R
#150
05
1;
0?
b0000000001011101 O
b010 R
#151
18
0;
1?
0B
b0000000001011110 O
#152
15
08
1B
b000000010 Q
b001 R
#153
05
1;
0?
b0000000001011111 O
b010 R
#154
18
0;
1?
0A
0B
1E
b0000000001100000 O
#155
15
08
0>
1B
b0000000000000001 P
b000000011 Q
b001 R
#156
05
0D
b0000000000000010 P
b010 R
#157
1D
#158
b0000000000000011 P
#159
0D
b0000000000000100 P
#160
1D
#161
b0000000000000101 P
#162
0D
b0000000000000110 P
#163
1D
#164
b0000000000000111 P
#165
0D
b0000000000001000 P
#166
1D
#167
b0000000000001001 P
#168
0D
b0000000000001010 P
#169
1D
#170
b0000000000001011 P
#171
0D
b0000000000001100 P
#172
1D
#173
b0000000000001101 P
#174
0D
b0000000000001110 P
#175
1D
#176
b0000000000001111 P
#177
0D
b0000000000010000 P
#178
1D
#179
b0000000000010001 P
#180
0D
b0000000000010010 P
#181
1D
#182
b0000000000010011 P
#183
0D
b0000000000010100 P
#184
1D
#185
b0000000000010101 P
#186
0D
b0000000000010110 P
#187
1D
#188
b0000000000010111 P
#189
0D
b0000000000011000 P
#190
1D
#191
b0000000000011001 P
#192
0D
b0000000000011010 P
#193
1D
#194
b0000000000011011 P
#195
0D
b0000000000011100 P
#196
1D
#197
b0000000000011101 P
#198
0D
b0000000000011110 P
#199
1D
#200
b0000000000011111 P
#201
0D
b0000000000100000 P
#202
1D
#203
b0000000000100001 P
#204
0D
b0000000000100010 P
#205
1D
#206
b0000000000100011 P
#207
0D
b0000000000100100 P
#208
1D
#209
b0000000000100101 P
#210
0D
b0000000000100110 P
#211
1D
#212
b0000000000100111 P
#213
0D
b0000000000101000 P
#214
1D
#215
b0000000000101001 P
#216
0D
b0000000000101010 P
#217
1D
#218
b0000000000101011 P
#219
0D
b0000000000101100 P
#220
1D
#221
b0000000000101101 P
#222
0D
b0000000000101110 P
#223
1D
#224
b0000000000101111 P
#225
0D
b0000000000110000 P
#226
1D
#227
b0000000000110001 P
#228
0D
b0000000000110010 P
#229
1H
#251
0%
1&
#328
0&
1'
12
#488
03
#568
1/
#574
0/
b0000000000001110 L
#575
1/
#576
0/
b0000000000001111 L
#577
1/
#578
0/
b0000000000010000 L
#579
1/
#580
0/
b0000000000010001 L
#581
1/
#582
0/
b0000000000010010 L
#583
1/
#584
0/
b0000000000010011 L
#585
1/
#586
0/
b0000000000010100 L
#587
1/
#588
0/
b0000000000010101 L
#589
1/
#590
0/
b0000000000010110 L
#591
1/
#592
0/
b0000000000010111 L
#593
1/
#594
1,
0/
00
b0000000000011000 L
#595
1/
b0000000000011001 K
b0000011001 M
#596
1)
0-
b0000000000011010 K
b0000011010 M
#597
0)
1-
b0000001110 N
#598
b0000000000011011 K
b0000011011 M
#599
1)
0-
b0000000000011100 K
b0000011100 M
#600
0)
1-
b0000001111 N
#601
b0000000000011101 K
b0000011101 M
#602
1)
0-
b0000000000011110 K
b0000011110 M
#603
0)
1-
b0000010000 N
#604
b0000000000011111 K
b0000011111 M
#605
1)
0-
b0000000000100000 K
b0000100000 M
#606
0)
1-
b0000010001 N
#607
b0000000000100001 K
b0000100001 M
#608
1)
0-
b0000000000100010 K
b0000100010 M
#609
0)
1-
b0000010010 N
#610
b0000000000100011 K
b0000100011 M
#611
1)
0,
0-
10
b0000000000100100 K
b0000100100 M
#612
0)
1-
0/
b0000000000011001 L
b0000010011 N
#613
13
#632
03
#712
1/
#718
0/
b0000000000011010 L
#719
1/
#720
0/
b0000000000011011 L
#721
1/
#722
0/
b0000000000011100 L
#723
1/
#724
0/
b0000000000011101 L
#725
1/
#726
0/
b0000000000011110 L
#727
1/
#728
0/
b0000000000011111 L
#729
1/
#730
0/
b0000000000100000 L
#731
1/
#732
0/
b0000000000100001 L
#733
1/
#734
0/
b0000000000100010 L
#735
1/
#736
0/
b0000000000100011 L
#737
1/
#738
1,
0/
00
b0000000000100100 L
#739
1/
b0000000000100101 K
b0000100101 M
#740
1)
0-
b0000000000100110 K
b0000100110 M
#741
0)
1-
b0000010100 N
#742
b0000000000100111 K
b0000100111 M
#743
1)
0-
b0000000000101000 K
b0000101000 M
#744
0)
1-
b0000010101 N
#745
b0000000000101001 K
b0000101001 M
#746
1)
0-
b0000000000101010 K
b0000101010 M
#747
0)
1-
b0000010110 N
#748
b0000000000101011 K
b0000101011 M
#749
1)
0-
b0000000000101100 K
b0000101100 M
#750
0)
1-
b0000010111 N
#751
b0000000000101101 K
b0000101101 M
#752
1)
0-
b0000000000101110 K
b0000101110 M
#753
0)
1-
b0000011000 N
#754
b0000000000101111 K
b0000101111 M
#755
1)
0,
0-
10
b0000000000110000 K
b0000110000 M
#756
0)
1-
0/
b0000000000100101 L
b0000011001 N
#757
13
#776
03
#856
1/
#862
0/
b0000000000100110 L
#863
1/
#864
0/
b0000000000100111 L
#865
1/
#866
0/
b0000000000101000 L
#867
1/
#868
0/
b0000000000101001 L
#869
1/
#870
0/
b0000000000101010 L
#871
1/
#872
0/
b0000000000101011 L
#873
1/
#874
0/
b0000000000101100 L
#875
1/
#876
0/
b0000000000101101 L
#877
1/
#878
0/
b0000000000101110 L
#879
1/
#880
0/
b0000000000101111 L
#881
1/
#882
1,
0/
00
b0000000000110000 L
#883
1/
b0000000000110001 K
b0000110001 M
#884
1)
0-
b0000000000110010 K
b0000110010 M
#885
0)
1-
b0000011010 N
#886
b0000000000110011 K
b0000110011 M
#887
1)
0-
b0000000000110100 K
b0000110100 M
#888
0)
1-
b0000011011 N
#889
b0000000000110101 K
b0000110101 M
#890
1)
0-
b0000000000110110 K
b0000110110 M
#891
0)
1-
b0000011100 N
#892
b0000000000110111 K
b0000110111 M
#893
1)
0-
b0000000000111000 K
b0000111000 M
#894
0)
1-
b0000011101 N
#895
b0000000000111001 K
b0000111001 M
#896
1)
0-
b0000000000111010 K
b0000111010 M
#897
0)
1-
b0000011110 N
#898
b0000000000111011 K
b0000111011 M
#899
1)
0,
0-
10
b0000000000111100 K
b0000111100 M
#900
0)
1-
0/
b0000000000110001 L
b0000011111 N
#901
13
#920
03
#1000
1/
#1006
0/
b0000000000110010 L
#1007
1/
#1008
0/
b0000000000110011 L
#1009
1/
#1010
0/
b0000000000110100 L
#1011
1/
#1012
0/
b0000000000110101 L
#1013
1/
#1014
0/
b0000000000110110 L
#1015
1/
#1016
0/
b0000000000110111 L
#1017
1/
#1018
0/
b0000000000111000 L
#1019
1/
#1020
0/
b0000000000111001 L
#1021
1/
#1022
0/
b0000000000111010 L
#1023
1/
#1024
0/
b0000000000111011 L
#1025
1/
#1026
1,
0/
00
b0000000000111100 L
#1027
1/
b0000000000111101 K
b0000111101 M
#1028
1)
0-
b0000000000111110 K
b0000111110 M
#1029
0)
1-
b0000100000 N
#1030
b0000000000111111 K
b0000111111 M
#1031
1)
0-
b0000000001000000 K
b0001000000 M
#1032
0)
1-
b0000100001 N
#1033
b0000000001000001 K
b0001000001 M
#1034
1)
0-
b0000000001000010 K
b0001000010 M
#1035
0)
1-
b0000100010 N
#1036
b0000000001000011 K
b0001000011 M
#1037
1)
0-
b0000000001000100 K
b0001000100 M
#1038
0)
1+
1-
b0000100011 N
#1039
b0000000001000101 K
b0001000101 M
#1040
1)
0-
b0000000001000110 K
b0001000110 M
#1041
0)
0*
0+
1-
b0000100100 N
#1042
1.
b0000000001000111 K
b0001000111 M
#1043
1)
0,
0-
0.
10
b0000000001001000 K
b0001001000 M
#1044
0/
b0000000000111101 L
#1045
13
#1064
03
#1144
1/
#1150
0/
b0000000000111110 L
#1151
1/
#1152
0/
b0000000000111111 L
#1153
1/
#1154
0/
b0000000001000000 L
#1155
1/
#1156
0/
b0000000001000001 L
#1157
1/
#1158
0/
b0000000001000010 L
#1159
1/
#1160
0/
b0000000001000011 L
#1161
1/
#1162
0/
b0000000001000100 L
#1163
1/
#1164
0/
b0000000001000101 L
#1165
1/
#1166
0/
b0000000001000110 L
#1167
1/
#1168
0/
11
b0000000001000111 L
#1169
1/
#1170
1,
0/
00
01
b0000000001001000 L
#1171
1/
#1172
13
#1208
14
#1287
0'
1(
02
03
04
1G
#1288
0H
#1368
1D
#1374
b0000000000110011 P
#1375
0D
b0000000000110100 P
#1376
1D
#1377
b0000000000110101 P
#1378
0D
b0000000000110110 P
#1379
1D
#1380
b0000000000110111 P
#1381
0D
b0000000000111000 P
#1382
1D
#1383
b0000000000111001 P
#1384
0D
b0000000000111010 P
#1385
1D
#1386
b0000000000111011 P
#1387
0D
b0000000000111100 P
#1388
1D
#1389
b0000000000111101 P
#1390
0D
b0000000000111110 P
#1391
1D
#1392
b0000000000111111 P
#1393
0D
b0000000001000000 P
#1394
1D
#1395
b0000000001000001 P
#1396
0D
b0000000001000010 P
#1397
1D
#1398
b0000000001000011 P
#1399
0D
b0000000001000100 P
#1400
1D
#1401
b0000000001000101 P
#1402
0D
b0000000001000110 P
#1403
1D
#1404
b0000000001000111 P
#1405
0D
b0000000001001000 P
#1406
1D
#1407
b0000000001001001 P
#1408
0D
b0000000001001010 P
#1409
1D
#1410
b0000000001001011 P
#1411
0D
b0000000001001100 P
#1412
1D
#1413
b0000000001001101 P
#1414
0D
b0000000001001110 P
#1415
1D
#1416
b0000000001001111 P
#1417
0D
b0000000001010000 P
#1418
1D
#1419
b0000000001010001 P
#1420
0D
b0000000001010010 P
#1421
1D
#1422
b0000000001010011 P
#1423
0D
b0000000001010100 P
#1424
1D
#1425
b0000000001010101 P
#1426
0D
b0000000001010110 P
#1427
1D
#1428
b0000000001010111 P
#1429
0D
b0000000001011000 P
#1430
1D
#1431
b0000000001011001 P
#1432
0D
b0000000001011010 P
#1433
1D
#1434
b0000000001011011 P
#1435
0D
b0000000001011100 P
#1436
1D
#1437
b0000000001011101 P
#1438
0D
b0000000001011110 P
#1439
1D
#1440
b0000000001011111 P
#1441
1A
0D
0E
b0000000001100000 P
#1442
1>
0B
1D
b0000000001100001 O
#1443
1;
0?
1B
#1444
18
0;
1?
0B
b0000000001100010 O
#1445
15
08
1B
b000000100 Q
b001 R
#1446
05
1;
0?
b0000000001100011 O
b010 R
#1447
18
0;
1?
0B
b0000000001100100 O
#1448
15
08
1B
b000000101 Q
b001 R
#1449
05
1;
0?
b0000000001100101 O
b010 R
#1450
18
0;
1?
0B
b0000000001100110 O
#1451
15
08
1B
b000000110 Q
b001 R
#1452
05
1;
0?
b0000000001100111 O
b010 R
#1453
18
0;
1?
0B
b0000000001101000 O
#1454
15
08
1B
b000000111 Q
b001 R
#1455
05
1;
0?
b0000000001101001 O
b010 R
#1456
18
0;
1?
0B
b0000000001101010 O
#1457
15
08
1B
b000001000 Q
b001 R
#1458
05
1;
0?
b0000000001101011 O
b010 R
#1459
18
0;
1?
0B
b0000000001101100 O
#1460
15
08
1B
b000001001 Q
b001 R
#1461
05
1;
0?
b0000000001101101 O
b010 R
#1462
18
0;
1?
0B
b0000000001101110 O
#1463
15
08
1B
b000001010 Q
b001 R
#1464
05
1;
0?
b0000000001101111 O
b010 R
#1465
18
0;
1?
0B
b0000000001110000 O
#1466
15
08
1B
1H
b000001011 Q
b001 R
#1467
05
1;
0?
b0000000001110001 O
b010 R
#1468
18
0;
1?
0B
b0000000001110010 O
#1469
15
08
1B
b000001100 Q
b001 R
#1470
05
1;
0?
b0000000001110011 O
b010 R
#1471
18
0;
1?
0B
b0000000001110100 O
#1472
15
08
1B
b000001101 Q
b001 R
#1473
05
1;
0?
b0000000001110101 O
b010 R
#1474
18
0;
1?
0B
b0000000001110110 O
#1475
15
08
1B
b000001110 Q
b001 R
#1476
05
1;
0?
b0000000001110111 O
b010 R
#1477
18
0;
1?
0B
b0000000001111000 O
#1478
15
08
1B
b000001111 Q
b001 R
#1479
05
1;
0?
b0000000001111001 O
b010 R
#1480
18
0;
1?
0B
b0000000001111010 O
#1481
15
08
1B
b000010000 Q
b001 R
#1482
05
1;
0?
b0000000001111011 O
b010 R
#1483
18
0;
1?
0B
b0000000001111100 O
#1484
15
08
1B
b000010001 Q
b001 R
#1485
05
1;
0?
b0000000001111101 O
b010 R
#1486
18
0;
1?
0B
b0000000001111110 O
#1487
15
08
1B
b000010010 Q
b001 R
#1488
05
1;
0?
b0000000001111111 O
b010 R
#1489
18
0;
1?
0B
b0000000010000000 O
#1490
15
08
1B
b000010011 Q
b001 R
#1491
05
1;
0?
b0000000010000001 O
b010 R
#1492
18
0;
1?
0B
b0000000010000010 O
#1493
15
08
1B
b000010100 Q
b001 R
#1494
05
1;
0?
b0000000010000011 O
b010 R
#1495
18
0;
1?
0B
b0000000010000100 O
#1496
15
08
1B
b000010101 Q
b001 R
#1497
05
1;
0?
b0000000010000101 O
b010 R
#1498
18
0;
1?
0B
b0000000010000110 O
#1499
15
08
1B
b000010110 Q
b001 R
#1500
05
1;
0?
b0000000010000111 O
b010 R
#1501
18
0;
1?
0B
b0000000010001000 O
#1502
15
08
1B
b000010111 Q
b001 R
#1503
05
1;
0?
b0000000010001001 O
b010 R
#1504
18
0;
1?
0B
b0000000010001010 O
#1505
15
08
1B
b000011000 Q
b001 R
#1506
05
1;
0?
b0000000010001011 O
b010 R
#1507
18
0;
1?
0B
b0000000010001100 O
#1508
15
08
1B
b000011001 Q
b001 R
#1509
05
1;
0?
b0000000010001101 O
b010 R
#1510
18
0;
1?
0B
b0000000010001110 O
#1511
15
08
1B
b000011010 Q
b001 R
#1512
05
1;
0?
b0000000010001111 O
b010 R
#1513
18
0;
1?
0B
b0000000010010000 O
#1514
15
08
1B
b000011011 Q
b001 R
#1515
05
1;
0?
b0000000010010001 O
b010 R
#1516
18
0;
1?
0B
b0000000010010010 O
#1517
15
08
1B
b000011100 Q
b001 R
#1518
05
1;
0?
b0000000010010011 O
b010 R
#1519
18
0;
1?
0B
b0000000010010100 O
#1520
15
08
1B
b000011101 Q
b001 R
#1521
05
1;
0?
b0000000010010101 O
b010 R
#1522
18
0;
1?
0B
b0000000010010110 O
#1523
15
08
1B
b000011110 Q
b001 R
#1524
05
1;
0?
b0000000010010111 O
b010 R
#1525
18
0;
1?
0B
b0000000010011000 O
#1526
15
08
1B
b000011111 Q
b001 R
#1527
05
1;
0?
b0000000010011001 O
b010 R
#1528
18
0;
1?
0B
b0000000010011010 O
#1529
15
08
1B
b000100000 Q
b001 R
#1530
05
1;
0?
b0000000010011011 O
b010 R
#1531
18
0;
1?
0B
b0000000010011100 O
#1532
15
08
1B
b000100001 Q
b001 R
#1533
05
1;
0?
b0000000010011101 O
b010 R
#1534
18
0;
1?
0B
b0000000010011110 O
#1535
15
08
1B
b000100010 Q
b001 R
#1536
05
1;
0?
b0000000010011111 O
b010 R
#1537
18
0;
1?
0B
b0000000010100000 O
#1538
15
08
1B
b000100011 Q
b001 R
#1539
05
1;
0?
b0000000010100001 O
b010 R
#1540
18
0;
1?
0B
b0000000010100010 O
#1541
15
08
1B
b000100100 Q
b001 R
#1542
05
1;
0?
b0000000010100011 O
b010 R
#1543
18
0;
1?
0B
b0000000010100100 O
#1544
15
08
1B
b000100101 Q
b001 R
#1545
05
1;
0?
b0000000010100101 O
b010 R
#1546
18
0;
1?
0B
0H
b0000000010100110 O
#1547
15
08
1B
b000100110 Q
b001 R
#1548
05
1;
0?
b0000000010100111 O
b010 R
#1549
18
0;
1?
0B
b0000000010101000 O
#1550
15
08
1B
b000100111 Q
b001 R
#1551
05
1;
0?
b0000000010101001 O
b010 R
#1552
18
0;
1?
0B
b0000000010101010 O
#1553
15
08
1B
b000101000 Q
b001 R
#1554
05
1;
0?
b0000000010101011 O
b010 R
#1555
18
0;
1?
0B
b0000000010101100 O
#1556
15
08
1B
b000101001 Q
b001 R
#1557
05
1;
0?
b0000000010101101 O
b010 R
#1558
18
0;
1?
0B
b0000000010101110 O
#1559
15
08
1B
b000101010 Q
b001 R
#1560
05
1;
0?
b0000000010101111 O
b010 R
#1561
18
0;
1?
0B
b0000000010110000 O
#1562
15
08
1B
b000101011 Q
b001 R
#1563
05
1;
0?
b0000000010110001 O
b010 R
#1564
18
0;
1?
0B
b0000000010110010 O
#1565
15
08
1B
b000101100 Q
b001 R
#1566
05
1;
0?
b0000000010110011 O
b010 R
#1567
18
0;
1?
0B
b0000000010110100 O
#1568
15
08
1B
b000101101 Q
b001 R
#1569
05
1;
0?
b0000000010110101 O
b010 R
#1570
18
0;
1?
0B
b0000000010110110 O
#1571
15
08
1B
b000101110 Q
b001 R
#1572
05
1;
0?
b0000000010110111 O
b010 R
#1573
18
0;
1?
0B
b0000000010111000 O
#1574
15
08
1B
b000101111 Q
b001 R
#1575
05
1;
0?
b0000000010111001 O
b010 R
#1576
18
0;
1?
0B
b0000000010111010 O
#1577
15
08
1B
b000000000 Q
b001 R
#1578
05
1;
0?
b0000000010111011 O
b010 R
#1579
18
0;
1?
0B
b0000000010111100 O
#1580
15
08
1B
b000000001 Q
b001 R
#1581
05
1;
0?
b0000000010111101 O
b010 R
#1582
18
0;
1?
0B
b0000000010111110 O
#1583
15
08
1B
b000000010 Q
b001 R
#1584
05
1;
0?
b0000000010111111 O
b010 R
#1585
18
0;
1?
0A
0B
1E
b0000000011000000 O
#1586
15
08
0>
1B
b0000000001100001 P
b000000011 Q
b001 R
#1587
05
0D
b0000000001100010 P
b010 R
#1588
1D
#1589
b0000000001100011 P
#1590
0D
b0000000001100100 P
#1591
1D
#1592
b0000000001100101 P
#1593
0D
b0000000001100110 P
#1594
1D
#1595
b0000000001100111 P
#1596
0D
b0000000001101000 P
#1597
1D
#1598
b0000000001101001 P
#1599
0D
b0000000001101010 P
#1600
1D
#1601
b0000000001101011 P
#1602
0D
b0000000001101100 P
#1603
1D
#1604
b0000000001101101 P
#1605
0D
b0000000001101110 P
#1606
1D
#1607
b0000000001101111 P
#1608
0D
b0000000001110000 P
#1609
1D
#1610
b0000000001110001 P
#1611
0D
b0000000001110010 P
#1612
1D
#1613
b0000000001110011 P
#1614
0D
b0000000001110100 P
#1615
1D
#1616
b0000000001110101 P
#1617
0D
b0000000001110110 P
#1618
1D
#1619
b0000000001110111 P
#1620
0D
b0000000001111000 P
#1621
1D
#1622
b0000000001111001 P
#1623
0D
b0000000001111010 P
#1624
1D
#1625
b0000000001111011 P
#1626
0D
b0000000001111100 P
#1627
1D
#1628
b0000000001111101 P
#1629
0D
b0000000001111110 P
#1630
1D
#1631
b0000000001111111 P
#1632
0D
b0000000010000000 P
#1633
1D
